wavelength[nm]	absorption	
250.0	0.321
250.5	0.314
251.0	0.309
251.5	0.302
252.0	0.294
252.5	0.287
253.0	0.278
253.5	0.272
254.0	0.263
254.5	0.256
255.0	0.248
255.5	0.240
256.0	0.234
256.5	0.225
257.0	0.219
257.5	0.211
258.0	0.204
258.5	0.199
259.0	0.192
259.5	0.188
260.0	0.181
260.5	0.178
261.0	0.174
261.5	0.169
262.0	0.167
262.5	0.163
263.0	0.161
263.5	0.158
264.0	0.154
264.5	0.153
265.0	0.147
265.5	0.146
266.0	0.140
266.5	0.136
267.0	0.132
267.5	0.126
268.0	0.122
268.5	0.115
269.0	0.110
269.5	0.105
270.0	0.099
270.5	0.096
271.0	0.090
271.5	0.088
272.0	0.084
272.5	0.082
273.0	0.080
273.5	0.076
274.0	0.077
274.5	0.075
275.0	0.075
275.5	0.075
276.0	0.074
276.5	0.076
277.0	0.075
277.5	0.077
278.0	0.077
278.5	0.077
279.0	0.079
279.5	0.078
280.0	0.080
280.5	0.080
281.0	0.080
281.5	0.080
282.0	0.079
282.5	0.081
283.0	0.079
283.5	0.079
284.0	0.079
284.5	0.077
285.0	0.077
285.5	0.074
286.0	0.075
286.5	0.072
287.0	0.072
287.5	0.071
288.0	0.069
288.5	0.070
289.0	0.067
289.5	0.067
290.0	0.067
290.5	0.065
291.0	0.067
291.5	0.063
292.0	0.064
292.5	0.063
293.0	0.062
293.5	0.063
294.0	0.061
294.5	0.062
295.0	0.061
295.5	0.061
296.0	0.062
296.5	0.060
297.0	0.062
297.5	0.060
298.0	0.061
298.5	0.061
299.0	0.060
299.5	0.061
300.0	0.060
300.5	0.062
301.0	0.062
301.5	0.061
302.0	0.063
302.5	0.062
303.0	0.063
303.5	0.062
304.0	0.063
304.5	0.064
305.0	0.063
305.5	0.066
306.0	0.065
306.5	0.066
307.0	0.067
307.5	0.066
308.0	0.069
308.5	0.068
309.0	0.070
309.5	0.070
310.0	0.070
310.5	0.072
311.0	0.071
311.5	0.074
312.0	0.073
312.5	0.075
313.0	0.075
313.5	0.076
314.0	0.078
314.5	0.076
315.0	0.078
315.5	0.078
316.0	0.078
316.5	0.080
317.0	0.079
317.5	0.082
318.0	0.081
318.5	0.082
319.0	0.082
319.5	0.082
320.0	0.083
320.5	0.084
321.0	0.084
321.5	0.084
322.0	0.084
322.5	0.085
323.0	0.085
323.5	0.085
324.0	0.087
324.5	0.086
325.0	0.085
325.5	0.085
326.0	0.085
326.5	0.085
327.0	0.085
327.5	0.085
328.0	0.085
328.5	0.085
329.0	0.084
329.5	0.084
330.0	0.083
330.5	0.083
331.0	0.082
331.5	0.081
332.0	0.080
332.5	0.078
333.0	0.077
333.5	0.075
334.0	0.074
334.5	0.072
335.0	0.070
335.5	0.069
336.0	0.067
336.5	0.064
337.0	0.063
337.5	0.060
338.0	0.059
338.5	0.057
339.0	0.055
339.5	0.053
340.0	0.051
340.5	0.050
341.0	0.048
341.5	0.047
342.0	0.045
342.5	0.043
343.0	0.043
343.5	0.041
344.0	0.040
344.5	0.039
345.0	0.038
345.5	0.038
346.0	0.037
346.5	0.036
347.0	0.036
347.5	0.036
348.0	0.036
348.5	0.036
349.0	0.036
349.5	0.036
350.0	0.036
350.5	0.037
351.0	0.037
351.5	0.038
352.0	0.038
352.5	0.039
353.0	0.039
353.5	0.039
354.0	0.039
354.5	0.040
355.0	0.040
355.5	0.040
356.0	0.040
356.5	0.041
357.0	0.041
357.5	0.041
358.0	0.040
358.5	0.040
359.0	0.040
359.5	0.040
360.0	0.040
360.5	0.039
361.0	0.039
361.5	0.038
362.0	0.038
362.5	0.037
363.0	0.037
363.5	0.037
364.0	0.035
364.5	0.035
365.0	0.035
365.5	0.033
366.0	0.033
366.5	0.033
367.0	0.031
367.5	0.030
368.0	0.030
368.5	0.030
369.0	0.028
369.5	0.028
370.0	0.027
370.5	0.026
371.0	0.026
371.5	0.025
372.0	0.025
372.5	0.024
373.0	0.023
373.5	0.023
374.0	0.023
374.5	0.022
375.0	0.022
375.5	0.021
376.0	0.022
376.5	0.021
377.0	0.019
377.5	0.019
378.0	0.019
378.5	0.020
379.0	0.018
379.5	0.019
380.0	0.018
380.5	0.018
381.0	0.018
381.5	0.018
382.0	0.018
382.5	0.017
383.0	0.017
383.5	0.018
384.0	0.017
384.5	0.017
385.0	0.016
385.5	0.016
386.0	0.016
386.5	0.016
387.0	0.015
387.5	0.015
388.0	0.015
388.5	0.015
389.0	0.014
389.5	0.014
390.0	0.014
390.5	0.014
391.0	0.014
391.5	0.013
392.0	0.013
392.5	0.013
393.0	0.013
393.5	0.013
394.0	0.013
394.5	0.012
395.0	0.012
395.5	0.012
396.0	0.011
396.5	0.012
397.0	0.011
397.5	0.011
398.0	0.011
398.5	0.011
399.0	0.011
399.5	0.011
400.0	0.011
400.5	0.010
401.0	0.010
401.5	0.010
402.0	0.010
402.5	0.009
403.0	0.010
403.5	0.009
404.0	0.009
404.5	0.009
405.0	0.009
405.5	0.007
406.0	0.009
406.5	0.008
407.0	0.008
407.5	0.007
408.0	0.008
408.5	0.007
409.0	0.006
409.5	0.007
410.0	0.007
410.5	0.007
411.0	0.007
411.5	0.007
412.0	0.006
412.5	0.006
413.0	0.006
413.5	0.006
414.0	0.006
414.5	0.006
415.0	0.006
415.5	0.005
416.0	0.005
416.5	0.005
417.0	0.005
417.5	0.005
418.0	0.005
418.5	0.005
419.0	0.004
419.5	0.005
420.0	0.004
420.5	0.004
421.0	0.004
421.5	0.004
422.0	0.005
422.5	0.003
423.0	0.004
423.5	0.004
424.0	0.004
424.5	0.004
425.0	0.004
425.5	0.004
426.0	0.004
426.5	0.004
427.0	0.004
427.5	0.005
428.0	0.004
428.5	0.004
429.0	0.005
429.5	0.005
430.0	0.005
430.5	0.005
431.0	0.004
431.5	0.005
432.0	0.006
432.5	0.005
433.0	0.006
433.5	0.005
434.0	0.006
434.5	0.006
435.0	0.006
435.5	0.006
436.0	0.007
436.5	0.007
437.0	0.007
437.5	0.007
438.0	0.007
438.5	0.007
439.0	0.008
439.5	0.008
440.0	0.008
440.5	0.008
441.0	0.008
441.5	0.009
442.0	0.009
442.5	0.009
443.0	0.008
443.5	0.010
444.0	0.010
444.5	0.010
445.0	0.011
445.5	0.011
446.0	0.012
446.5	0.011
447.0	0.012
447.5	0.012
448.0	0.012
448.5	0.013
449.0	0.013
449.5	0.014
450.0	0.014
450.5	0.015
451.0	0.015
451.5	0.015
452.0	0.017
452.5	0.017
453.0	0.018
453.5	0.018
454.0	0.019
454.5	0.020
455.0	0.020
455.5	0.021
456.0	0.021
456.5	0.022
457.0	0.023
457.5	0.024
458.0	0.025
458.5	0.025
459.0	0.027
459.5	0.028
460.0	0.028
460.5	0.029
461.0	0.031
461.5	0.032
462.0	0.033
462.5	0.034
463.0	0.035
463.5	0.036
464.0	0.037
464.5	0.039
465.0	0.040
465.5	0.041
466.0	0.042
466.5	0.043
467.0	0.043
467.5	0.045
468.0	0.047
468.5	0.048
469.0	0.049
469.5	0.050
470.0	0.051
470.5	0.052
471.0	0.053
471.5	0.055
472.0	0.056
472.5	0.057
473.0	0.058
473.5	0.059
474.0	0.060
474.5	0.062
475.0	0.064
475.5	0.064
476.0	0.065
476.5	0.068
477.0	0.069
477.5	0.071
478.0	0.072
478.5	0.073
479.0	0.076
479.5	0.078
480.0	0.079
480.5	0.081
481.0	0.083
481.5	0.086
482.0	0.088
482.5	0.091
483.0	0.093
483.5	0.097
484.0	0.099
484.5	0.102
485.0	0.106
485.5	0.109
486.0	0.113
486.5	0.117
487.0	0.121
487.5	0.125
488.0	0.128
488.5	0.133
489.0	0.137
489.5	0.143
490.0	0.147
490.5	0.152
491.0	0.157
491.5	0.163
492.0	0.168
492.5	0.173
493.0	0.179
493.5	0.184
494.0	0.190
494.5	0.196
495.0	0.202
495.5	0.208
496.0	0.213
496.5	0.219
497.0	0.224
497.5	0.230
498.0	0.236
498.5	0.241
499.0	0.246
499.5	0.251
500.0	0.256
500.5	0.260
501.0	0.265
501.5	0.269
502.0	0.273
502.5	0.276
503.0	0.279
503.5	0.282
504.0	0.286
504.5	0.288
505.0	0.290
505.5	0.292
506.0	0.294
506.5	0.295
507.0	0.296
507.5	0.298
508.0	0.298
508.5	0.300
509.0	0.301
509.5	0.301
510.0	0.302
510.5	0.302
511.0	0.304
511.5	0.305
512.0	0.306
512.5	0.308
513.0	0.310
513.5	0.311
514.0	0.313
514.5	0.316
515.0	0.319
515.5	0.322
516.0	0.326
516.5	0.330
517.0	0.335
517.5	0.340
518.0	0.346
518.5	0.352
519.0	0.359
519.5	0.367
520.0	0.373
520.5	0.382
521.0	0.391
521.5	0.401
522.0	0.412
522.5	0.422
523.0	0.434
523.5	0.446
524.0	0.458
524.5	0.472
525.0	0.485
525.5	0.500
526.0	0.515
526.5	0.530
527.0	0.547
527.5	0.563
528.0	0.581
528.5	0.597
529.0	0.616
529.5	0.635
530.0	0.654
530.5	0.673
531.0	0.693
531.5	0.713
532.0	0.732
532.5	0.752
533.0	0.773
533.5	0.792
534.0	0.812
534.5	0.831
535.0	0.850
535.5	0.867
536.0	0.885
536.5	0.902
537.0	0.917
537.5	0.932
538.0	0.946
538.5	0.958
539.0	0.969
539.5	0.979
540.0	0.987
540.5	0.993
541.0	0.997
541.5	1.000
542.0	1.000
542.5	0.999
543.0	0.994
543.5	0.990
544.0	0.982
544.5	0.973
545.0	0.962
545.5	0.947
546.0	0.933
546.5	0.916
547.0	0.897
547.5	0.877
548.0	0.855
548.5	0.833
549.0	0.808
549.5	0.783
550.0	0.758
550.5	0.731
551.0	0.704
551.5	0.677
552.0	0.649
552.5	0.621
553.0	0.593
553.5	0.566
554.0	0.538
554.5	0.512
555.0	0.485
555.5	0.459
556.0	0.434
556.5	0.410
557.0	0.386
557.5	0.363
558.0	0.341
558.5	0.319
559.0	0.299
559.5	0.279
560.0	0.261
560.5	0.243
561.0	0.226
561.5	0.210
562.0	0.196
562.5	0.181
563.0	0.168
563.5	0.155
564.0	0.144
564.5	0.133
565.0	0.123
565.5	0.113
566.0	0.105
566.5	0.097
567.0	0.089
567.5	0.082
568.0	0.075
568.5	0.069
569.0	0.063
569.5	0.059
570.0	0.054
570.5	0.050
571.0	0.045
571.5	0.041
572.0	0.038
572.5	0.035
573.0	0.032
573.5	0.029
574.0	0.027
574.5	0.025
575.0	0.022
575.5	0.020
576.0	0.019
576.5	0.017
577.0	0.016
577.5	0.014
578.0	0.013
578.5	0.012
579.0	0.011
579.5	0.010
580.0	0.009
580.5	0.008
581.0	0.007
581.5	0.007
582.0	0.006
582.5	0.006
583.0	0.006
583.5	0.005
584.0	0.004
584.5	0.004
585.0	0.004
585.5	0.003
586.0	0.003
586.5	0.003
587.0	0.002
587.5	0.003
588.0	0.002
588.5	0.002
589.0	0.002
589.5	0.001
590.0	0.002
590.5	0.001
591.0	0.001
591.5	0.001
592.0	0.001
592.5	0.001
593.0	0.001
593.5	0.001
594.0	0.000
594.5	0.000
595.0	0.001
595.5	0.000
596.0	0.000
596.5	0.000
597.0	0.000
597.5	0.000
598.0	0.000
598.5	0.000
599.0	0.000
599.5	-0.000
600.0	0.000
