{
  "version": "ThunderSTORM (dev-2016-09-10-b1)",
  "imageInfo": {
    "title": "06_40RG_561nm_50pct_200ms_300gain_160nm_TC.tiff"
  },
  "cameraSettings": {
    "readoutNoise": 0.0,
    "offset": 100.0,
    "quantumEfficiency": 0.95,
    "isEmGain": true,
    "photons2ADU": 62.5,
    "pixelSize": 160.9586,
    "gain": 300.0
  },
  "analysisFilter": {
    "name": "Wavelet filter (B-Spline)",
    "scale": 2.0,
    "order": 3
  },
  "analysisDetector": {
    "name": "Local maximum",
    "connectivity": 8,
    "threshold": "std(Wave.F1)"
  },
  "analysisEstimator": {
    "name": "PSF: Integrated Gaussian",
    "fittingRadius": 3,
    "method": "Weighted Least squares",
    "initialSigma": 1.5,
    "fullImageFitting": false,
    "crowdedField": {
      "name": "Multi-emitter fitting analysis",
      "mfaEnabled": true,
      "nMax": 5,
      "pValue": 1.0E-6,
      "keepSameIntensity": false,
      "intensityInRange": true,
      "intensityRange": "500:2500"
    }
  },
  "postProcessing": [
    {
      "name": "Remove duplicates",
      "options": "distformula=uncertainty_xy"
    },
    {
      "name": "Filter",
      "options": "formula=[(sigma > 30) & (sigma < 150)]"
    },
    {
      "name": "Drift correction",
      "options": "path=c:\\\\Users\\\\miros\\\\home\\\\work\\\\jhi\\\\projects\\\\plasmonic_microscopy\\\\data\\\\measurements\\\\biocev\\\\02_2021_08_04\\\\super_resolution_post_128x128\\\\06_40RG_561nm_50pct_200ms_300gain_160nm_TC.json magnification=16.0 method=[Cross correlation] ccsmoothingbandwidth=0.5 save=true steps=3 showcorrelations=false"
    },
    {
      "name": "Density filter",
      "options": "neighbors=5 radius=50.0 dimensions=2D"
    }
  ],
  "is3d": false,
  "isSet3d": true
}